asynchronous fifo/verification/wave.vcd
$date
	Sun Nov 17 08:33:50 2024
$end
$version
	Icarus Verilog
$end
$timescale
	1s
$end
$scope module bin2gray_tb $end
$var wire 6 ! data_gray [5:0] $end
$var parameter 32 " WIDTH $end
$var parameter 32 # clkp $end
$var reg 6 $ data_bin [5:0] $end
$var reg 6 % expected_gray [5:0] $end
$var integer 32 & i [31:0] $end
$scope module dut $end
$var wire 6 ' data_bin [5:0] $end
$var wire 6 ( data_gray [5:0] $end
$var parameter 32 ) WIDTH $end
$scope begin bin_to_gray_loop[0] $end
$var parameter 2 * l $end
$scope begin genblk1 $end
$upscope $end
$upscope $end
$scope begin bin_to_gray_loop[1] $end
$var parameter 2 + l $end
$scope begin genblk1 $end
$upscope $end
$upscope $end
$scope begin bin_to_gray_loop[2] $end
$var parameter 3 , l $end
$scope begin genblk1 $end
$upscope $end
$upscope $end
$scope begin bin_to_gray_loop[3] $end
$var parameter 3 - l $end
$scope begin genblk1 $end
$upscope $end
$upscope $end
$scope begin bin_to_gray_loop[4] $end
$var parameter 4 . l $end
$scope begin genblk1 $end
$upscope $end
$upscope $end
$scope begin bin_to_gray_loop[5] $end
$var parameter 4 / l $end
$scope begin genblk1 $end
$upscope $end
$upscope $end
$upscope $end
$upscope $end
$enddefinitions $end
$comment Show the parameter values. $end
$dumpall
b101 /
b100 .
b11 -
b10 ,
b1 +
b0 *
b110 )
b101 #
b110 "
$end
#0
$dumpvars
b0 (
b0 '
b0 &
bx %
b0 $
b0 !
$end
#6
b1 &
b0 %
#11
b1 !
b1 (
b1 $
b1 '
#12
b10 &
b1 %
#17
b11 !
b11 (
b10 $
b10 '
#18
b11 &
b11 %
#23
b10 !
b10 (
b11 $
b11 '
#24
b100 &
b10 %
#29
b110 !
b110 (
b100 $
b100 '
#30
b101 &
b110 %
#35
b111 !
b111 (
b101 $
b101 '
#36
b110 &
b111 %
#41
b101 !
b101 (
b110 $
b110 '
#42
b111 &
b101 %
#47
b100 !
b100 (
b111 $
b111 '
#48
b1000 &
b100 %
#53
b1100 !
b1100 (
b1000 $
b1000 '
#54
b1001 &
b1100 %
#59
b1101 !
b1101 (
b1001 $
b1001 '
#60
b1010 &
b1101 %
#65
b1111 !
b1111 (
b1010 $
b1010 '
#66
b1011 &
b1111 %
#71
b1110 !
b1110 (
b1011 $
b1011 '
#72
b1100 &
b1110 %
#77
b1010 !
b1010 (
b1100 $
b1100 '
#78
b1101 &
b1010 %
#83
b1011 !
b1011 (
b1101 $
b1101 '
#84
b1110 &
b1011 %
#89
b1001 !
b1001 (
b1110 $
b1110 '
#90
b1111 &
b1001 %
#95
b1000 !
b1000 (
b1111 $
b1111 '
#96
b10000 &
b1000 %
#101
b11000 !
b11000 (
b10000 $
b10000 '
#102
b10001 &
b11000 %
#107
b11001 !
b11001 (
b10001 $
b10001 '
#108
b10010 &
b11001 %
#113
b11011 !
b11011 (
b10010 $
b10010 '
#114
b10011 &
b11011 %
#119
b11010 !
b11010 (
b10011 $
b10011 '
#120
b10100 &
b11010 %
#125
b11110 !
b11110 (
b10100 $
b10100 '
#126
b10101 &
b11110 %
#131
b11111 !
b11111 (
b10101 $
b10101 '
#132
b10110 &
b11111 %
#137
b11101 !
b11101 (
b10110 $
b10110 '
#138
b10111 &
b11101 %
#143
b11100 !
b11100 (
b10111 $
b10111 '
#144
b11000 &
b11100 %
#149
b10100 !
b10100 (
b11000 $
b11000 '
#150
b11001 &
b10100 %
#155
b10101 !
b10101 (
b11001 $
b11001 '
#156
b11010 &
b10101 %
#161
b10111 !
b10111 (
b11010 $
b11010 '
#162
b11011 &
b10111 %
#167
b10110 !
b10110 (
b11011 $
b11011 '
#168
b11100 &
b10110 %
#173
b10010 !
b10010 (
b11100 $
b11100 '
#174
b11101 &
b10010 %
#179
b10011 !
b10011 (
b11101 $
b11101 '
#180
b11110 &
b10011 %
#185
b10001 !
b10001 (
b11110 $
b11110 '
#186
b11111 &
b10001 %
#191
b10000 !
b10000 (
b11111 $
b11111 '
#192
b100000 &
b10000 %
#197
b110000 !
b110000 (
b100000 $
b100000 '
#198
b100001 &
b110000 %
#203
b110001 !
b110001 (
b100001 $
b100001 '
#204
b100010 &
b110001 %
#209
b110011 !
b110011 (
b100010 $
b100010 '
#210
b100011 &
b110011 %
#215
b110010 !
b110010 (
b100011 $
b100011 '
#216
b100100 &
b110010 %
#221
b110110 !
b110110 (
b100100 $
b100100 '
#222
b100101 &
b110110 %
#227
b110111 !
b110111 (
b100101 $
b100101 '
#228
b100110 &
b110111 %
#233
b110101 !
b110101 (
b100110 $
b100110 '
#234
b100111 &
b110101 %
#239
b110100 !
b110100 (
b100111 $
b100111 '
#240
b101000 &
b110100 %
#245
b111100 !
b111100 (
b101000 $
b101000 '
#246
b101001 &
b111100 %
#251
b111101 !
b111101 (
b101001 $
b101001 '
#252
b101010 &
b111101 %
#257
b111111 !
b111111 (
b101010 $
b101010 '
#258
b101011 &
b111111 %
#263
b111110 !
b111110 (
b101011 $
b101011 '
#264
b101100 &
b111110 %
#269
b111010 !
b111010 (
b101100 $
b101100 '
#270
b101101 &
b111010 %
#275
b111011 !
b111011 (
b101101 $
b101101 '
#276
b101110 &
b111011 %
#281
b111001 !
b111001 (
b101110 $
b101110 '
#282
b101111 &
b111001 %
#287
b111000 !
b111000 (
b101111 $
b101111 '
#288
b110000 &
b111000 %
#293
b101000 !
b101000 (
b110000 $
b110000 '
#294
b110001 &
b101000 %
#299
b101001 !
b101001 (
b110001 $
b110001 '
#300
b110010 &
b101001 %
#305
b101011 !
b101011 (
b110010 $
b110010 '
#306
b110011 &
b101011 %
#311
b101010 !
b101010 (
b110011 $
b110011 '
#312
b110100 &
b101010 %
#317
b101110 !
b101110 (
b110100 $
b110100 '
#318
b110101 &
b101110 %
#323
b101111 !
b101111 (
b110101 $
b110101 '
#324
b110110 &
b101111 %
#329
b101101 !
b101101 (
b110110 $
b110110 '
#330
b110111 &
b101101 %
#335
b101100 !
b101100 (
b110111 $
b110111 '
#336
b111000 &
b101100 %
#341
b100100 !
b100100 (
b111000 $
b111000 '
#342
b111001 &
b100100 %
#347
b100101 !
b100101 (
b111001 $
b111001 '
#348
b111010 &
b100101 %
#353
b100111 !
b100111 (
b111010 $
b111010 '
#354
b111011 &
b100111 %
#359
b100110 !
b100110 (
b111011 $
b111011 '
#360
b111100 &
b100110 %
#365
b100010 !
b100010 (
b111100 $
b111100 '
#366
b111101 &
b100010 %
#371
b100011 !
b100011 (
b111101 $
b111101 '
#372
b111110 &
b100011 %
#377
b100001 !
b100001 (
b111110 $
b111110 '
#378
b111111 &
b100001 %
#383
b100000 !
b100000 (
b111111 $
b111111 '
#384
b1000000 &
b100000 %
